{
	"routes": [{
			"path": "/sap/opu/odata",
			"wattUsage": "odata_abap",
			"target": {
				"type": "destination",
				"name": "GWD_CLONING",
				"entryPath": "/sap/opu/odata"
			},
			"description": "GWD_NO_PW"
		},
		{
			"path": "/sap/bc/ui5_ui5",
			"wattUsage": "ui5_execute_abap",
			"target": {
				"type": "destination",
				"name": "GWD_CLONING",
				"entryPath": "/sap/bc/ui5_ui5"
			},
			"description": "GWD_NO_PW"
		},
 {
      "path": "/webapp/resources",
      "target": {
        "type": "service",
        "name": "sapui5",
        "entryPath": "/resources",
        "version": "1.40.8"
      },
      "description": "SAPUI5 Resources"
    },
    {
      "path": "/webapp/test-resources",
      "target": {
        "type": "service",
        "name": "sapui5",
        "entryPath": "/test-resources",
        "version": "1.40.8"
      },
      "description": "SAPUI5 Test Resources"
    },
    {
      "path": "/dist/resources",
      "target": {
        "type": "service",
        "name": "sapui5",
        "entryPath": "/resources",
        "version": "1.40.8"
      },
      "description": "SAPUI5 Resources"
    },
    {
      "path": "/dist/test-resources",
      "target": {
        "type": "service",
        "name": "sapui5",
        "entryPath": "/test-resources",
        "version": "1.40.8"
      },
      "description": "SAPUI5 Test Resources"
    },
    {
      "path": "/resources",
      "target": {
        "type": "service",
        "name": "sapui5",
        "entryPath": "/resources",
        "version": "1.40.8"
      },
      "description": "SAPUI5 Resources"
    },
    {
      "path": "/test-resources",
      "target": {
        "type": "service",
        "name": "sapui5",
        "entryPath": "/test-resources",
        "version": "1.40.8"
      },
      "description": "SAPUI5 Test Resources"
    }
  ]
}